digraph bb1 {
  _start_bb1 [shape=point]
  7764040 [label="0",shape=rect]
  _start_bb1 -> 7764040 [style=invis]
  7763960 [label="tab[]",shape=oval]
  7763540 [label="$0",shape=rect]
  _start_bb1 -> 7763540 [style=invis]
  7762900 [label="1",shape=rect]
  _start_bb1 -> 7762900 [style=invis]
  7762820 [label="tab[]",shape=oval]
  7762640 [label="$1",shape=rect]
  _start_bb1 -> 7762640 [style=invis]
  7762440 [label="add",shape=oval]
  7764120 [label="y",shape=rect]
  _start_bb1 -> 7764120 [style=invis]
  { rank = sink; 7762060; }
  7762060 [label="stop",shape=diamond]
  7764040 -> 7763960[label="@"];
  7763960 -> 7763540;
  7763540 -> 7762440;
  7762900 -> 7762820[label="@"];
  7762820 -> 7762640;
  7762640 -> 7762440;
  7762440 -> 7764120;
}
