digraph bb3 {
  _start_bb3 [shape=point]
  { rank = sink; 7795080; }
  7795080 [label="!output1",shape=oval]
  7794840 [label="y1",shape=point]
  _start_bb3 -> 7794840 [style=invis]
  { rank = sink; 7794600; }
  7794600 [label="!output2",shape=oval]
  7794520 [label="y2",shape=point]
  _start_bb3 -> 7794520 [style=invis]
  { rank = sink; 7794380; }
  7794380 [label="!output3",shape=oval]
  7794300 [label="y3",shape=point]
  _start_bb3 -> 7794300 [style=invis]
  { rank = sink; 7794180; }
  7794180 [label="stop",shape=oval]
  7794840 -> 7795080 [label="$4"];
  7794520 -> 7794600 [label="$5"];
  7794300 -> 7794380 [label="$6"];
}
