digraph bb2 {
  node [shape = circle];
  11992840 [label="*"]
  node [shape = none];
  12009480 [label="a"]
  node [shape = none];
  11992960 [label="b"]
  node [shape = none];
  12009540 [label="y3"]
  11992840 -> 12009540 [label="y3"];
  12009480 -> 11992840 [label="a"];
  11992960 -> 11992840 [label="b"];
}
