\relax 
\@writefile{toc}{\contentsline {chapter}{\numberline {1}Synth\IeC {\`e}se comportementale}{5}}
\@writefile{lof}{\addvspace {10\p@ }}
\@writefile{lot}{\addvspace {10\p@ }}
\@writefile{lof}{\contentsline {xchapter}{Synth\IeC {\`e}se comportementale}{5}}
\@writefile{lot}{\contentsline {xchapter}{Synth\IeC {\`e}se comportementale}{5}}
\@writefile{toc}{\contentsline {section}{\numberline {1.1}Introduction}{5}}
\@writefile{toc}{\contentsline {section}{\numberline {1.2}Description des CDFG}{5}}
\@writefile{toc}{\contentsline {section}{\numberline {1.3}Elaboration du Chemin de donn\IeC {\'e}es}{5}}
\@writefile{toc}{\contentsline {subsection}{\numberline {1.3.1}Allocation des registres}{5}}
\@writefile{toc}{\contentsline {subsection}{\numberline {1.3.2}Elaboration du datapath}{6}}
\@writefile{toc}{\contentsline {paragraph}{D\IeC {\'e}finition}{6}}
\@writefile{toc}{\contentsline {paragraph}{Risques}{6}}
\@setckpt{hls}{
\setcounter{page}{7}
\setcounter{equation}{0}
\setcounter{enumi}{0}
\setcounter{enumii}{0}
\setcounter{enumiii}{0}
\setcounter{enumiv}{0}
\setcounter{footnote}{0}
\setcounter{mpfootnote}{0}
\setcounter{part}{0}
\setcounter{chapter}{1}
\setcounter{section}{3}
\setcounter{subsection}{2}
\setcounter{subsubsection}{0}
\setcounter{paragraph}{0}
\setcounter{subparagraph}{0}
\setcounter{figure}{0}
\setcounter{table}{0}
\setcounter{parentequation}{0}
\setcounter{ContinuedFloat}{0}
\setcounter{KVtest}{0}
\setcounter{subfigure}{0}
\setcounter{subfigure@save}{0}
\setcounter{lofdepth}{1}
\setcounter{subtable}{0}
\setcounter{subtable@save}{0}
\setcounter{lotdepth}{1}
\setcounter{lstnumber}{1}
\setcounter{mtc}{1}
\setcounter{minitocdepth}{2}
\setcounter{ptc}{0}
\setcounter{parttocdepth}{2}
\setcounter{lips@count}{0}
\setcounter{DefaultLines}{2}
\setcounter{DefaultDepth}{0}
\setcounter{L@lines}{0}
\setcounter{L@depth}{0}
\setcounter{lstlisting}{0}
\setcounter{minilofdepth}{2}
\setcounter{minilotdepth}{2}
\setcounter{partlofdepth}{2}
\setcounter{partlotdepth}{2}
\setcounter{sectlofdepth}{2}
\setcounter{sectlotdepth}{2}
}
