\select@language {english}
\select@language {french}
\contentsline {chapter}{\numberline {1}Synth\IeC {\`e}se comportementale}{5}
\contentsline {section}{\numberline {1.1}Introduction}{5}
\contentsline {section}{\numberline {1.2}Description des CDFG}{5}
\contentsline {section}{\numberline {1.3}Elaboration du Chemin de donn\IeC {\'e}es}{5}
\contentsline {subsection}{\numberline {1.3.1}Allocation des registres}{5}
\contentsline {subsection}{\numberline {1.3.2}Elaboration du datapath}{6}
\contentsline {paragraph}{D\IeC {\'e}finition}{6}
\contentsline {paragraph}{Risques}{6}
